…
``` r
# read-in catchment outlets
catchment_outlets <- read_sf(file.path(dir_data, "catchment_outlets.shp"))
catchment_outlets
```

    ## Simple feature collection with 184 features and 1 field
    ## Geometry type: POINT
    ## Dimension:     XY
    ## Bounding box:  xmin: 486600 ymin: 78320 xmax: 830800 ymax: 281975
    ## Projected CRS: CH1903 / LV03
    ## # A tibble: 184 × 2
    ##    ctchmnt        geometry
    ##    <chr>       <POINT [m]>
    ##  1 0070    (623610 200420)
    ##  2 0078    (803490 130520)
    ##  3 0155    (608220 223240)
    ##  4 0185    (757975 191925)
    ##  5 0308    (753190 261590)
    ##  6 0352    (718285 197310)
    ##  7 0403    (797700 168170)
    ##  8 0488    (610680 167840)
    ##  9 0491    (692480 191800)
    ## 10 2009    (557660 133280)
    ## # ℹ 174 more rows
…
``` r
# information on data availability
catchment_outlets %>% 
  dplyr::select(catchmentnr, water_name, place, contains(c("start_date", "end_date"))) %>% 
  st_drop_geometry()
```

    ## # A tibble: 184 × 9
    ##    catchmentnr water_name  place                start_date start_date_continuous
    ##  * <chr>       <chr>       <chr>                <date>     <date>               
    ##  1 0070        Emme        Emmenmatt            1909-01-01 1909-01-01           
    ##  2 0078        Poschiavino Le Prese             1931-01-01 1931-01-01           
    ##  3 0155        Emme        Wiler, Limpachmündu… 1921-07-01 1921-07-01           
    ##  4 0185        Plessur     Chur                 1930-04-16 1930-04-16           
    ##  5 0308        Goldach     Goldach, Bleiche     1961-02-10 1961-02-10           
    ##  6 0352        Linth       Linthal, Ausgleichs… 1967-01-01 1967-01-01           
    ##  7 0403        Inn         Cinuos-chel          1974-01-01 1974-01-01           
    ##  8 0488        Simme       Latterbach           1985-05-01 1985-05-01           
    ##  9 0491        Schächen    Bürglen, Galgenwäld… 1986-01-01 1986-01-01           
    ## 10 2009        Rhône       Porte du Scex        1905-01-01 1905-01-01           
    ## # ℹ 174 more rows
    ## # ℹ 4 more variables: start_date_homogeneous <date>, end_date <date>,
    ## #   end_date_continuous <date>, end_date_homogeneous <date>
…
